Class_05 | In-Class Assignment | R Continued
…
#Dr. Rakesh K Mathur had the highest number of pills sent to him in 2010. He had 337,450 pills in that year. Currently his medical license is on probation after the Board determined that his practices may have caused serious risk to public safety.

Task: Which state had the highest rate of total pills per person sent to it over the 2006 to 2012 period?

pills_population <- pharmacies_pills %>%
  inner_join(population, by="buyer_state")

pills_population %>%
  group_by(buyer_state) %>%
  mutate(total_state=sum(total_pills)) %>%
  mutate(rate=total_state/population_average) %>%
  arrange(desc(rate))

## # A tibble: 147,196 x 8
## # Groups:   buyer_state [51]
##    buyer_dea_no buyer_bus_act buyer_county buyer_state total_pills
##    <fct>        <fct>         <fct>        <chr>             <dbl>
##  1 AA1596432    PRACTITIONER  HARRISON     WV                 3300
##  2 AA1873783    PRACTITIONER LOGAN        WV                 2260
##  3 AA2017603    RETAIL PHARM TUCKER       WV                47300
##  4 AA2986175    PRACTITIONER  WOOD         WV                  100
##  5 AA3163285    RETAIL PHARM MONONGALIA   WV              2615100
##  6 AA5258632    RETAIL PHARM MONROE       WV               588520
##  7 AA6614603    RETAIL PHARM LOGAN        WV              2656020
##  8 AA6677794    RETAIL PHARM KANAWHA      WV              1295100
##  9 AA8151728    RETAIL PHARM MINGO        WV              1576200
## 10 AA8721967    PRACTITIONER  JEFFERSON    WV                 1000
## #  with 147,186 more rows, and 3 more variables:
## #   population_average <int>, total_state <dbl>, rate <dbl>
…
Task: We have been building all semester towards our final analysis project, where you will try to find an interesting story in the opioid data released by the post, using larger and larger slices of the data each time.

Use the rest of this lab as an opportunity to explore this national slice of buyer data with an eye to trying to identify trends, examples and other interesting facts that you might want to dig deeper on later in the semester.

Create and answer at least four codeblocks, using any of the techniques weve learned in this class up to this point. You can also load in additional data if you like.

#Which county had the number of pills?

pharmacies_pills %>%
  group_by(buyer_county, buyer_state) %>%
  summarize(total_county= sum(total_pills)) %>%
  arrange(desc(total_county))

## # A tibble: 3,131 x 3
## # Groups:   buyer_county [1,863]
##    buyer_county buyer_state total_county
##    <fct>        <fct>              <dbl>
##  1 LOS ANGELES  CA           1499252465.
##  2 HARRIS       TX           1061156586.
##  3 MARICOPA     AZ           1004569667 
##  4 CLARK        NV            745110939 
##  5 WAYNE        MI            618073160 
##  6 ALAMEDA      CA            617525202.
##  7 SAN DIEGO    CA            608164250.
##  8 CHARLESTON   SC            596206074 
##  9 BROWARD      FL            568091488 
## 10 COOK         IL            566778650.
## #  with 3,121 more rows
…
#Donald E. Smith from Morgantown, WV, had th highest number of pills between 2006 and 2012. The total number of pills was 40,100.

#Which state and year had the highest number of pills?

pharmacies_year %>%
  group_by(buyer_state, year)%>%
  summarize(pills_state = sum(dosage_unit)) %>%
  arrange(desc(pills_state))

## # A tibble: 396 x 3
## # Groups:   buyer_state [58]
##    buyer_state  year pills_state
##    <fct>       <int>       <dbl>
##  1 CA           2012 1318766136.
##  2 CA           2011 1301822983.
##  3 CA           2010 1198384341.
##  4 CA           2009 1167527178 
##  5 CA           2008 1095626025.
##  6 CA           2007 1037393654.
##  7 FL           2010  992454233 
##  8 CA           2006  937771106.
##  9 TX           2011  892081072 
## 10 FL           2011  887395150.
## #  with 386 more rows
…
